[{
  "address_id": "ppp-rrr-iii",
  "subnet_name": "test_subnet",
  "subnet_id": "sss-ddd-fff",
  "address": "172.31.0.2",
  "used": true,
  "service_id": "sss-eee-rrr",
  "bind": false,
  "created_at": "2017-05-02",
  "updated_at": "2017-05-02"
},
{
  "address_id": "ppp-rrr-iii",
  "subnet_id": "sss-ddd-fff",
  "subnet_name": "test_subnet",
  "address": "172.31.0.3",
  "used": true,
  "service_id": "sss-eee-rrr",
  "bind": false,
  "created_at": "2017-05-02",
  "updated_at": "2017-05-02"
}]
