{
  "required": true,
  "$schema": "http://json-schema.org/draft-03/schema",
  "type": "object",
  "properties": {
    "description": {
      "required": false,
      "type": "string"
    },
    "spectre_version": {
      "required": false,
      "type": "string"
    }
  }
}
