{
  "errors": [{
    "source": "jakiro",
    "code": "invalid_args",
    "message": "Invalid parameters were passed.",
    "type": "bad_request",
    "fields": [{
      "name": "this field is required",
      "threshold": "this field shoud be float type"
    }]
  }]
}