{
  "uuid": "18935230-861d-49b4-8876-fb6beca6a225",
  "name": "default",
  "namespace": "myorg",
  "status": "IN_PROGRESS",
  "step_at": "DOWNLOAD_CODE",
  "url": "test.git.com/test_repo.git",
  "type": "git",
  "branch": "master",
  "path": "/helm",
  "username": "my_username",
  "password": "",
  "templates":[
  ]
}
