[
  {
    "pipeline": {
      "type": "official"
    }
  },
  {
    "lb": {
      "type": "official"
    }
  },
  {
    "volume": {
      "type": "official",
      "drivers": [
        {
          "desc": "glusterfs",
          "driver_name": "glusterfs",
          "disp_name": "glusterfs"
        }
      ],
      "features": [
        "glusterfs"
      ],
      "agent": {
        "endpoint": "http://172.31.13.187:31790"
      }
    }
  },
  {
    "registry": {
      "type": "official"
    }
  },
  {
    "service-catalog": {
      "type": "official"
    }
  },
  {
    "logs": {
      "type": "official",
      "storage": {
        "read_log_source": "default",
        "write_log_source": "default"
      }
    }
  }
]
