[
  {
    "resource_actions": [
      "application:update",
      "application:view",
      "application:create",
      "application:delete",
      "application:start",
      "application:stop"
    ],
    "kubernetes": {
      "kind": "Application",
      "firstTimestamp": null,
      "lastTimestamp": null,
      "apiVersion": "app.k8s.io/v1alpha1",
      "spec": {
        "componentKinds": [
          {
            "kind": "Service",
            "group": ""
          },
          {
            "kind": "Deployment",
            "group": "extensions"
          },
          {
            "kind": "ClusterRole",
            "group": "rbac.authorization.k8s.io"
          }
        ],
        "descriptor": {},
        "assemblyPhase": "Pending",
        "selector": {
          "matchLabels": {
            "app.alauda.io/name": "test"
          }
        }
      },
      "metadata": {
        "name": "test",
        "generation": 1,
        "labels": {
          "app.alauda.io/uuid": "7cc5f961-61bf-482c-85e7-cacb2eee2a89"
        },
        "namespace": "default",
        "resourceVersion": "549876",
        "creationTimestamp": "2018-07-26T06:09:48Z",
        "annotations": {
          "app.alauda.io/source": "",
          "app.alauda.io/create_method": ""
        },
        "selfLink": "/apis/app.k8s.io/v1alpha1/namespaces/default/applications/test",
        "uid": "7ff811e0-909a-11e8-8daf-5254004f2ad2"
      }
    }
  }
]