{
    "resource": {
		"name": "hello",
		"namespace": "default"
    },
    "kubernetes": [
        {
		  "apiVersion": "v1",
		  "kind": "Service",
		  "metadata": {
			"name": "web",
			"labels": {
			  "app": "nginx"
			}
		  },
		  "spec": {
			"ports": [
			  {
				"port": 8080
			  }
			],
			"selector": {
			  "app": "nginx"
			},
			"clusterIP": "None"
		  }
        },
        {
            "apiVersion": "extensions/v1beta1",
            "kind": "Deployment",
            "metadata": {
              "name": "nginx",
              "namespace": "default"
            },
            "spec": {
              "replicas": 1,
              "template": {
                "metadata": {
                  "labels": {
                    "app": "nginx"
                  }
                },
                "spec": {
                  "containers": [
                    {
                      "image": "nginx:1.9.0",
                      "name": "nginx-app",
                      "ports": [
                        {
                          "containerPort": 82,
                          "name": "web"
                        }
                      ]
                    }
                  ]
                }
              }
            }
        },
		{
			"kind": "ClusterRole",
			"apiVersion": "rbac.authorization.k8s.io/v1",
			"metadata": {
				"name": "test"
			},
			"rules": [
				{
					"apiGroups": [""],
					"resources": ["secrets"],
					"verbs": [
						"get",
						"watch",
						"list"
					]
				}
			]
		}
    ]
}