[
    [
      {
        "resource_actions": [
          "k8s_others:delete",
          "k8s_others:update",
          "k8s_others:view",
          "k8s_others:create"
        ],
        "kubernetes": {
          "status": {
            "loadBalancer": {}
          },
          "kind": "Service",
          "firstTimestamp": null,
          "lastTimestamp": null,
          "apiVersion": "v1",
          "spec": {
            "clusterIP": "None",
            "sessionAffinity": "None",
            "type": "ClusterIP",
            "ports": [
              {
                "targetPort": 8080,
                "protocol": "TCP",
                "port": 8080
              }
            ],
            "selector": {
              "app": "nginx"
            }
          },
          "metadata": {
            "name": "web",
            "labels": {
              "app": "nginx",
              "app.alauda.io/name": "test",
              "app.alauda.io/uuid": "7cc5f961-61bf-482c-85e7-cacb2eee2a89"
            },
            "namespace": "default",
            "resourceVersion": "549890",
            "creationTimestamp": "2018-07-26T06:09:59Z",
            "selfLink": "/api/v1/namespaces/default/services/web",
            "uid": "869b7855-909a-11e8-8daf-5254004f2ad2"
          }
        }
      },
      {
        "resource_actions": [
          "application:update",
          "application:view",
          "application:create",
          "application:delete",
          "application:start",
          "application:stop"
        ],
        "kubernetes": {
          "kind": "Application",
          "firstTimestamp": null,
          "lastTimestamp": null,
          "apiVersion": "app.k8s.io/v1alpha1",
          "spec": {
            "componentKinds": [
              {
                "kind": "Service",
                "group": ""
              },
              {
                "kind": "Deployment",
                "group": "extensions"
              },
              {
                "kind": "ClusterRole",
                "group": "rbac.authorization.k8s.io"
              }
            ],
            "descriptor": {},
            "assemblyPhase": "Failed",
            "selector": {
              "matchLabels": {
                "app.alauda.io/name": "test"
              }
            }
          },
          "metadata": {
            "name": "test",
            "generation": 1,
            "labels": {
              "app.alauda.io/uuid": "7cc5f961-61bf-482c-85e7-cacb2eee2a89"
            },
            "namespace": "default",
            "resourceVersion": "549893",
            "creationTimestamp": "2018-07-26T06:09:48Z",
            "annotations": {
              "app.alauda.io/source": "",
              "app.alauda.io/create_method": ""
            },
            "selfLink": "/apis/app.k8s.io/v1alpha1/namespaces/default/applications/test",
            "uid": "7ff811e0-909a-11e8-8daf-5254004f2ad2"
          }
        }
      }
    ],
    [
      {
        "resource_actions": [
          "k8s_others:delete",
          "k8s_others:update",
          "k8s_others:view",
          "k8s_others:create"
        ],
        "kubernetes": {
          "status": {
            "loadBalancer": {}
          },
          "kind": "Service",
          "firstTimestamp": null,
          "lastTimestamp": null,
          "apiVersion": "v1",
          "spec": {
            "clusterIP": "None",
            "sessionAffinity": "None",
            "type": "ClusterIP",
            "ports": [
              {
                "targetPort": 3306,
                "protocol": "TCP",
                "port": 3306
              }
            ],
            "selector": {
              "app.kubernetes.io/component": "mysql-rdbms",
              "app.kubernetes.io/name": "wordpress-01"
            }
          },
          "metadata": {
            "name": "wordpress-mysql-hsvc",
            "labels": {
              "app.alauda.io/name": "hello",
              "app.kubernetes.io/name": "wordpress-01",
              "app.kubernetes.io/component": "mysql-hsvc",
              "app.alauda.io/uuid": "b4c1c354-38c5-4414-93c0-312f67454f89",
              "app.kubernetes.io/tier": "backend",
              "app.kubernetes.io/version": "3"
            },
            "namespace": "default",
            "resourceVersion": "358959",
            "creationTimestamp": "2018-07-24T10:15:39Z",
            "selfLink": "/api/v1/namespaces/default/services/wordpress-mysql-hsvc",
            "uid": "83676adb-8f2a-11e8-8daf-5254004f2ad2"
          }
        }
      },
      {
        "resource_actions": [
          "application:stop",
          "application:update",
          "application:view",
          "application:create",
          "application:delete",
          "application:start"
        ],
        "kubernetes": {
          "kind": "Application",
          "firstTimestamp": null,
          "lastTimestamp": null,
          "apiVersion": "app.k8s.io/v1alpha1",
          "spec": {
            "componentKinds": [
              {
                "kind": "Service",
                "group": ""
              },
              {
                "kind": "Deployment",
                "group": "extensions"
              }
            ],
            "descriptor": {},
            "assemblyPhase": "Succeeded",
            "selector": {
              "matchLabels": {
                "app.alauda.io/name": "hello"
              }
            }
          },
          "metadata": {
            "name": "hello",
            "generation": 1,
            "labels": {
              "app.alauda.io/uuid": "b4c1c354-38c5-4414-93c0-312f67454f89"
            },
            "namespace": "default",
            "resourceVersion": "549694",
            "creationTimestamp": "2018-07-24T10:15:28Z",
            "annotations": {
              "app.alauda.io/action": "start",
              "app.alauda.io/source": "",
              "app.alauda.io/create_method": ""
            },
            "selfLink": "/apis/app.k8s.io/v1alpha1/namespaces/default/applications/hello",
            "uid": "7d256543-8f2a-11e8-8daf-5254004f2ad2"
          }
        }
      }
    ]
  ]