{
    "resource_actions": [
        "cluster:clear",
        "cluster:create",
        "cluster:delete",
        "cluster:deploy",
        "cluster:update",
        "cluster:view"
    ],
    "display_name": "声声慢",
    "name": "shenshengman",
    "namespace": "claasv1",
    "created_at": "2017-05-10T15:35:15.756031Z",
    "container_manager": "MESOS",
    "updated_at": "2017-07-14T07:03:58.617155Z",
    "state": "RUNNING",
    "env_uuid": "e6419570-d57b-40e5-878e-1b2d97ca92dd",
    "attr": {
        "nic": "eth0",
        "docker": {
            "path": "/var/lib/docker",
            "version": "1.12.3"
        },
        "mesos_endpoint": "http://123.57.15.92:8080/v1/clusters",
        "cloud": {
            "name": "ALI",
            "region_id": "cn-beijing"
        },
        "mesos": {
            "auth": {},
            "marathon_endpoint": "http://10.172.231.189:8081"
        }
    },
    "type": "CLAAS",
    "id": "1a3b7d19-8dc5-492c-850c-4719c2eb8697",
    "features": {
        "lb": {
            "haproxy": {
                "lb_tag": "ha",
                "ipaddress": "123.57.15.92",
                "private_ip": "10.172.231.189",
                "cloud_name": "ALI",
                "region_name": "shenshengman"
            },
            "features": [
                "haproxy",
                "alb",
                "slb"
            ],
            "slb": {
                "access_key": "aaa",
                "secret_access_key": "bbb"
            }
        },
        "service": {
            "haproxy": {
                "lb_tag": "ha",
                "ipaddress": "123.57.15.92",
                "private_ip": "10.172.231.189",
                "cloud_name": "ALI",
                "region_name": "shenshengman"
            },
            "features": [
                "haproxy",
                "raw-container",
                "pipeline",
                "mipn",
                "file-log",
                "tunnel",
                "exec",
                "alb",
                "volume",
                "application",
                "host-network",
                "registry",
                "chronos",
                "mount-points",
                "slb",
                "glusterfs"
            ],
            "exec": {
                "endpoint": "123.57.15.92"
            },
            "volume": {
                "drivers": [
                    {
                        "desc": "glusterfs",
                        "driver_name": "glusterfs",
                        "disp_name": "glusterfs"
                    }
                ],
                "agent": {
                    "username": "puck",
                    "password": "xxx",
                    "endpoint": "http://10.162.192.134:31005/volume_driver"
                }
            },
            "manager": {
                "host_port_range": [
                    31000,
                    32000
                ],
                "endpoint": "http://10.162.192.134:31005/marathon",
                "port_resources": [
                    [
                        31000,
                        32000
                    ]
                ],
                "docker_resource_ratio": {
                    "mem": "2",
                    "cpu": 1
                }
            },
            "slb": {
                "access_key": "NHyfR3LQaRTg8yLw"
            }
        },
        "tunnel": {
            "public_key": "xxxxx",
            "private_key": "xxxxx",
            "port_mapping": {
                "reserved": "10.162.192.134:31009",
                "puck": "10.162.192.134:31005",
                "tiny": "10.162.192.134:31006",
                "ssh": "182.92.0.148:30001",
                "doom": "10.162.192.134:31007",
                "registry": "10.162.192.134:31008"
            }
        },
        "network_modes": {
            "features": [
                "bridge",
                "host-network"
            ]
        },
        "cd": {
            "temporary": {
                "ip": "http://10.162.192.134:31007",
                "type": "chronos"
            },
            "features": [
                "temporary"
            ]
        },
        "volume": {
            "drivers": [
                {
                    "desc": "glusterfs",
                    "driver_name": "glusterfs",
                    "disp_name": "glusterfs"
                }
            ],
            "features": [
                "glusterfs"
            ],
            "agent": {
                "username": "puck",
                "password": "a3c122bba7619ea5ad6a",
                "endpoint": "http://10.162.192.134:31005/volume_driver"
            }
        },
        "clair_env": {
            "clair_db": "postgresql://postgres:test123@123.56.73.128:3210/test?sslmode=disable",
            "endpoint": "http://123.56.73.128:3060",
            "health_endpoint": "http://123.56.73.128:3061"
        }
    }
}
