{
  "nodes": [
    {
      "cpus_total": 2,
      "uptime": 1569234,
      "ports_allocated": [
        31528,
        32051,
        32995
      ],
      "ports_total": "[31000-33000]",
      "hostname": "172.18.0.6",
      "private_ip": "172.18.0.6",
      "containers_count": 3,
      "cpus_allocated": 1.125,
      "gpus_allocated": 0,
      "attributes": {},
      "mem_allocated": 2304,
      "gpus_utilization": 0,
      "gpus_total": 0,
      "mem_utilization": 0.38768298838970217,
      "cpus_utilization": 0.5625,
      "mem_total": 5943
    },
    {
      "cpus_total": 2,
      "uptime": 1569234,
      "ports_allocated": [
        31069,
        31284,
        31325,
        31846,
        31880,
        32442
      ],
      "ports_total": "[31000-33000]",
      "hostname": "172.18.0.7",
      "private_ip": "172.18.0.7",
      "containers_count": 6,
      "cpus_allocated": 1.125,
      "gpus_allocated": 0,
      "attributes": {},
      "mem_allocated": 2304,
      "gpus_utilization": 0,
      "gpus_total": 0,
      "mem_utilization": 0.38768298838970217,
      "cpus_utilization": 0.5625,
      "mem_total": 5943
    }
  ],
  "type": "MESOS_METRICS",
  "region": {
    "cpus_total": 4,
    "gpus_utilization": 0,
    "available_ports_count": 1,
    "nodes_count": 2,
    "containers_count": 9,
    "cpus_allocated": 2.25,
    "mem_total": 11886,
    "mem_allocated": 4608,
    "services_count": 14,
    "gpus_total": 0,
    "mem_utilization": 0.38768298838970217,
    "cpus_utilization": 0.5625,
    "gpus_allocated": 0
  }
}