{
    "region_id": "fea9cb80-1602-42d1-9493-16b78af65e08",
    "mount_points": [],
    "updated_at": "2017-08-22T09:16:13.480827",
    "update_strategy": {
        "max_unavailable": 1,
        "max_surge": 0
    },
    "target_state": "STOPPED",
    "instance_envvars": {},
    "service_namespace": "default--int-azure",
    "uuid": "b72d732f-c140-41e1-a1c6-d47305f0ce36",
    "linked_to_apps": {},
    "custom_instance_size": {
        "mem": 256,
        "cpu": 0.125
    },
    "subnet_id": null,
    "envfiles": [],
    "entrypoint": "",
    "autoscaling_config": {},
    "run_command": "",
    "space_id": "bc0db17e-c285-46b9-bf1b-a704fa08c303",
    "custom_domain_name": null,
    "linked_to_services": [],
    "raw_container_ports": [
        {
            "host_port": 31202,
            "protocol": "tcp",
            "container_port": 443
        },
        {
            "host_port": 31476,
            "protocol": "tcp",
            "container_port": 80
        }
    ],
    "healthy_num_instances": 1,
    "scaling_mode": "MANUAL",
    "image_name": "index.alauda.cn/library/nginx",
    "network_mode": "FLANNEL",
    "health_checks": [],
    "linked_from_apps": {},
    "load_balancers": [],
    "target_num_instances": 1,
    "current_num_instances": 1,
    "instances": [
        {
            "uuid": "adf7b2341dea5146004f9bb4195b5140266980f583ec3c1545b4622198b4c37d",
            "host_ip": "10.0.0.18",
            "instance_name": "test-sven3.0",
            "version": "CURRENT",
            "pod_name": "b72d732f-c140-41e1-a1c6-d47305f0ce36-deployment-826763195-1w9qd",
            "started_at": "2017-08-22T09:09:49Z",
            "container_ip": "10.1.0.175"
        }
    ],
    "created_at": "2017-08-22T09:03:09.281352",
    "last_autoscale_datetime": "None",
    "container_manager": "KUBERNETES",
    "current_status": "Stopping",
    "ports": [
        80,
        443
    ],
    "volumes": [],
    "is_stateful": false,
    "image_tag": "1.9.11",
    "instance_size": "XXS",
    "mipn_enabled": false
}