{
    "steps":[
        {
            "id": "12",
            "display_name": "Shell Script",
            "status": "FINSHED",
            "result": "SUCCESS",
            "start_time": "2018-01-06T10:07:43.599+0000",
            "duration_millis": 3423423423
        },
        {
            "id": "13",
            "display_name": "Branch A OK ?",
            "status": "PAUSED",
            "result": "UNKNOWN",
            "input":{
                "id": "28244cc8956d7838eff9ba5a86e5247f",
                "message": "Branch A OK ?"
            },
            "start_time": "2018-01-06T10:07:43.599+0000",
            "duration_millis": 3423423423
        }
    ]
}