[
  {
    "uuid": "123-321-123-321",
    "user": "john",
    "role_uuid": "123-321-123-321",
    "assigned_at":"2016-01-01T10:10:10Z"
  },
  {
    "user": "jack",
    "errors": [
      {
        "source": "1002",
        "message": "user does not have role",
        "code": "user-dont-have-role"
      }
    ]
  }
]
