[
  {
    "resource": "service",
    "general": false,
    "actions": ["service:create", "service:update", "service:delete"],
    "constraints": {
      "res:project": "name",
      "res:cluster": "name",
      "res:space": "name"
    }
  }
]
