{
  "uuid": "123-123-123",
  "parents": [
     {
        "uuid": "123-3213-4231",
        "name": "parent-role"
     }
  ],
  "name": "role-name",
  "permissions": [
    {
      "resource_type": "service",
      "resource": ["*"],
      "actions": ["service:*"],
      "constraints": [
        {
          "res:cluster": "dev"
        }
      ]
    }
  ],
  "created_at":"2016-01-01T10:10:10Z",
  "updated_at":"2016-01-01T10:10:10Z"
}
