[
    {
        "space_uuid": "21815280-7cb7-4a17-91ea-793b00970768",
        "project_name": "",
        "region_name": "k8s",
        "region_uuid": "5ddd2fc8-c7a2-4a9e-90e3-a4b0f0c111b6",
        "updated_at": "2017-11-28T13:39:44.175378Z",
        "current_status": "Running",
        "services": [
            {
                "application_uuid": "7eb2ff52-de45-4834-ac8a-b4b568dbb748",
                "created_at": "2017-11-28T13:39:44.468425",
                "app_name": "test-zoo",
                "service_name": "zoo1",
                "updated_at": "2017-11-28T13:40:11.216074",
                "target_state": "STARTED",
                "service_namespace": "test-zoo--global",
                "space_name": "global",
                "region_id": "5ddd2fc8-c7a2-4a9e-90e3-a4b0f0c111b6",
                "res:project": "",
                "uuid": "92ec9ca5-addc-470b-8fec-27522549713e",
                "custom_instance_size": {
                    "mem": 256,
                    "cpu": 0.125
                },
                "subnet_id": null,
                "pod_controller": "Deployment",
                "autoscaling_config": {},
                "res:application": "test-zoo",
                "custom_domain_name": null,
                "resource_actions": [
                    "service:stop",
                    "service:update",
                    "service:view",
                    "service:create",
                    "service:delete",
                    "service:start"
                ],
                "raw_container_ports": [
                    {
                        "host_port": 2181,
                        "protocol": "tcp",
                        "container_port": 2181
                    },
                    {
                        "host_port": 2888,
                        "protocol": "tcp",
                        "container_port": 2888
                    },
                    {
                        "host_port": 3888,
                        "protocol": "tcp",
                        "container_port": 3888
                    }
                ],
                "space_id": "21815280-7cb7-4a17-91ea-793b00970768",
                "res:cluster": "k8s",
                "scaling_mode": "MANUAL",
                "image_name": "index.alauda.cn/claas/catalog-zookeeper",
                "network_mode": "HOST",
                "is_stateful": false,
                "load_balancers": [],
                "target_num_instances": 1,
                "instance_size": "XXS",
                "kube_config": {
                    "services": [
                        {
                            "editable": false,
                            "type": "ClusterIP",
                            "name": "zoo1"
                        }
                    ],
                    "pod": {
                        "podAffinity": {},
                        "labels": {},
                        "podAntiAffinity": {}
                    }
                },
                "current_status": "Running",
                "action": "service:view",
                "image_tag": "3.5.0",
                "ports": [
                    2888,
                    3888,
                    2181
                ],
                "mipn_enabled": false,
                "res:space": "global"
            }
        ],
        "space_name": "global",
        "app_name": "test-zoo",
        "resource_actions": [
            "application:delete",
            "application:start",
            "application:stop",
            "application:update",
            "application:view",
            "application:create"
        ],
        "uuid": "7eb2ff52-de45-4834-ac8a-b4b568dbb748",
        "project_uuid": "",
        "created_at": "2017-11-28T13:39:44.175308Z",
        "namespace": "alauda",
        "created_by": "skwang",
        "source": "CATALOG",
        "type": "zookeeper",
        "region": "5ddd2fc8-c7a2-4a9e-90e3-a4b0f0c111b6"
    }
]
