{
    "basic_config": {
        "num_of_instances": 2,
        "cluster_size": "M",
        "node_tag": [
              {"tag_a_key" : "tag_a_value"},
              {"tag_b_key" : "tag_b_value"}
        ],
        "image_tag": "liaoj-dev",
        "internal_port": 1112,
        "app_tag": [
          {"type":"config_server"}
        ],
        "pod_anti_affinity": [
          {"type":"zuul"}
        ]
    },
    "advanced_config": {
      "kafka_hosts":"10.0.0.1,10.0.0.2",
      "kafka_port":"2222",
      "kafka_topic":"springCouldBus",
      "zookeeper_hosts":"10.0.0.1,10.0.0.2,10.0.0.3",
      "zookeeper_port":"2181",
      "config_server_rules": ""
    },
    "space_name": "int-azure",
    "name": "eureka-test",
    "region": "app_test",
    "region_alb_version": "v2",
    "namespace": "admin",
    "eureka_port":"1111"
}
