{
  "has_dashboard": false,
  "dashboard_url": "",
  "display_info": {
    "basic_info": [
      {
        "display_name": {
          "en": "kafka address",
          "zh": "kafka 地址"
        },
        "value": "10.0.0.1"
      },
      {
        "display_name": {
          "en": "kafka port",
          "zh": "kafka 端口"
        },
        "value": "9002"
      }

    ],
    "editable_info": [
      {
        "attribute_name": "config_server_rules",
        "type": "text",
        "display_name": {
          "en": "config server rules",
          "zh": "config server 配置"
        },
        "value": "spring\n  config\n    server\n      \ngit\n        uri:"
      }
    ]
  }
}
