{
    "info": {
        "en": "english info",
        "zh": "中文信息"
    },
    "name": "Batch Processing",
    "instruction": {
        "en": "english instruction",
        "zh": "中文详细介绍"
    },
    "basic_config": [
      {
          "attribute_name": "num_of_instances",
          "min_value": 1,
          "type": "int",
          "display_name": {
              "en": "Number of instances",
              "zh": "集群实例数"
          }
      },
      {
          "attribute_name": "cluster_size",
          "type": "option",
          "description": {
              "en": "Size of instances",
              "zh": "实例大小"
          },
          "option": [
              "XXS",
              "XS",
              "S",
              "M",
              "L",
              "XL"
          ],
          "display_name": {
              "en": "Instance size",
              "zh": "实例大小"
          }
      },
      {
          "attribute_name": "node_tag",
          "type": "multi_option",
          "description": {
              "en": "Deploy to specific host",
              "zh": "定点部署"
          },
          "option": {},
          "display_name": {
              "en": "Node tag",
              "zh": "主机标签"
          }
      },
      {
          "attribute_name": "image_tag",
          "description": {
              "en": "",
              "zh": ""
          },
          "value": "version",
          "key": "version",
          "display_name": {
              "en": "image tag",
              "zh": "镜像标签"
          },
          "type": "option",
          "option": [
              {
                  "version": "v0.0.2"
              }
          ]
      },
      {
          "attribute_name": "internal_port",
          "type": "string",
          "display_name": {
              "en": "port",
              "zh": "容器端口"
          }
      },
      {
          "attribute_name": "app_tag",
          "type": "table_input",
          "display_name": {
              "en": "app tag",
              "zh": "应用标签"
          }
      },
      {
          "attribute_name": "pod_anti_affinity",
          "type": "tags_input",
          "display_name": {
              "en": "pod anti affinity",
              "zh": "反亲和标签"
          }
      }
    ],
    "advanced_config": [
      #填充ALAUDA_KAFKA_INFO
      {
          "attribute_name": "kafka_hosts",
          "type": "string",
          "display_name": {
              "en": "kafka hosts",
              "zh": "kafka地址"
          }
      },
      {
          "attribute_name": "kafka_port",
          "type": "string",
          "display_name": {
              "en": "kafka port",
              "zh": "kafka 端口"
          }
      },
      #填充ALAUDA_ZOOKEEPER_INFO
      {
          "attribute_name": "zookeeper_hosts",
          "type": "string",
          "display_name": {
              "en": "zookeeper hosts",
              "zh": "zookeeper 地址"
          }
      },
      {
          "attribute_name": "zookeeper_port",
          "type": "string",
          "display_name": {
              "en": "zookeeper port",
              "zh": "zookeeper 端口"
          }
      },
      #填充ALAUDA_CONFIG_SERVER_RULE，对输入框里的内容BASE64编码
      {
          "attribute_name": "conifg_server_rule",
          "type": "code",
          "display_name": {
              "en": "config server rules",
              "zh": "confing server 规则"
          }
      }
    ]
	}
