{
    "apiVersion": "networking.k8s.io/v1",
    "kind": "NetworkPolicy",
    "metadata": {
        "name": "test-network-policy",
        "namespace": "default"
    },
    "spec": {
        "ingress": [
            {
                "from": [
                    {
                        "namespaceSelector": {
                            "matchLabels": {
                                "project": "myproject"
                            }
                        }
                    },
                    {
                        "podSelector": {
                            "matchLabels": {
                                "role": "frontend"
                            }
                        }
                    }
                ],
                "ports": [
                    {
                        "port": 6379,
                        "protocol": "TCP"
                    }
                ]
            }
        ],
        "podSelector": {
            "matchLabels": {
                "role": "db"
            }
        }
    }
}