{
  "name": "xxx",
  "space_name": "admin",
  "space_uuid": "4d255a44-b075-4352-9526-0fb1ec1cc2a2",
  "description": "haha",
  "saved_search_detail": {
    "display_name": "yyy",
    "name": "yyy",
    "start_time": "-300",
    "end_time": "0",
    "used_at": 1500018179,
    "created_at": 1500018179,
    "updated_at": 1500018179,
    "query_conditions":{
      "clusters": ["INT_ALI", "class"],
      "nodes": ["10.0.0.7"],
      "services": [
        {
          "name": "yxli-svc-2",
          "uuid": "ed4efdd9-ef8a-4025-aa4d-13abde31a110",
          "space_name": "",
          "region_name": "tencent_ops",
          "app_name": "app-tencent-ops-yxli-svc-2",
          "kube_namespace": "jenkins"
        }
      ]
    }
  },
  "log_source_detail": {
    "log_source_uuid": "",
    "log_source_name": ""
  },
  "statistic": "count",
  "comparison_operator": ">=",
  "check_mode": "interval | crontab",
  "check_period_value": "3000 | */5 * * * *",
  "threshold": "10",
  "status": "OK|ALARM|INVALID",
  "created_at": "1500018179",
  "updated_at": "1500018179",
  "created_by": "cfshang",
  "alarm_actions":{
    "notifications": [
        {
          "name": "notification_name",
          "uuid": "notification_uuid"
        }
      ],
      "services": [
        {
          "name": "space_name.app_name.service_name",
          "uuid": "service_uuid",
          "type": "scaling_in | scaling_out"
        }
      ]
  },
  "ok_actions": {
    "notifications": [
        {
          "name": "notification_name",
          "uuid": "notification_uuid"
        }
      ]
    },
  "resource_actions": [
    "log_alarm:create",
    "log_alarm:delete",
    "log_alarm:update",
    "log_alarm:view"
  ]
}
