{
  "name": {
    "required": true,
    "type": "string",
    "description": "名称"
  },
  "space_name": {
    "required": true,
    "type": "string",
    "description": "资源空间名称"
  },
  "description": {
    "required": true,
    "type": "string",
    "description": "描述"
  },
  "saved_search_uuid": {
    "required": true,
    "type": "string",
    "description": "关联的查询条件uuid"
  },
  "log_source_uuid": {
    "required": true,
    "type": "string",
    "description": "关联的日志源uuid"
  },
  "statistic": {
    "required": true,
    "type": "string",
    "description": "判断方式",
    "choices": "count"
  },
  "comparison_operator": {
    "required": true,
    "type": "string",
    "description": "判断符号",
    "choices": ">=|>|<|<=|==|!="
  },
  "cycle_mode": {
    "required": true,
    "type": "string",
    "description": "循环方式",
    "choices": "interval | crontab"
  },
  "cycle_value": {
    "required": true,
    "type": "string",
    "description": "循环值",
    "choices": "3000 | */5 * * * *"
  },
  "threshold": {
    "required": true,
    "type": "string",
    "description": "阈值"
  },
  "alarm_actions":{
    "required": true,
    "type": "dict",
    "description": "告警触发动作",
    "notifications": [
        {
          "name": "notification_name",
          "uuid": "notification_uuid"
        }
      ],
      "services": [
        {
          "name": "space_name.app_name.service_name",
          "uuid": "service_uuid",
          "type": "scaling_in | scaling_out"
        }
      ]
  },
  "invalid_actions": {
    "required": true,
    "type": "dict",
    "description": "非法触发动作",
    "notifications": [
      {
        "name": "notification_name",
        "uuid": "notification_uuid"
      }
    ]
  },
  "ok_actions": {
    "required": true,
    "type": "dict",
    "description": "恢复触发动作",
    "notifications": [
      {
        "name": "notification_name",
        "uuid": "notification_uuid"
      }
    ]
  }
}
