{
  "username": "xxx",
  "created_at": "2017-07-20T06:35:50.419248Z",
  "password": "xxx",
  "version": "0.7",
  "description": "test",
  "version_uuid": "6d506867-238d-4bf8-8c5e-b5d7255a3dc9",
  "image": "index.alauda.cn/claas/spectre:xxxx",
  "is_latest": false,
  "updated_at": "2017-07-20T06:35:50.419279Z"
}
