{
    "total_items": 3,
    "total_pages": 1,
    "snapshots": [
        {
            "id": "9e789099-3c7e-4fb6-b120-44aa6b8d3d4d",
            "region_id": "6dc81375-96cd-41a1-a7f8-11b3eeb695a5",
            "name": "asdfasdf",
            "size": 10,
            "driver_name": "ebs",
            "volume_name": "ebs-1",
            "volume_id": "b6d0e671-f68b-4a3d-8a5b-d6b1bbfde6bd",
            "driver_snapshot_id": "snap-6bf2c558",
            "volume_type": "",
            "backup_url": "",
            "state": "completed",
            "synced_at": "0001-01-01T00:00:00Z",
            "created_at": "2016-09-20T14:44:53.666893Z",
            "updated_at": "2016-09-20T17:33:30.952127Z"
        },
        {
            "id": "c1f1ee6a-7c22-473c-b778-443bec6271d6",
            "region_id": "6dc81375-96cd-41a1-a7f8-11b3eeb695a5",
            "name": "ebs-snap-1",
            "size": 10,
            "driver_name": "ebs",
            "volume_name": "ebs-1",
            "volume_id": "b6d0e671-f68b-4a3d-8a5b-d6b1bbfde6bd",
            "driver_snapshot_id": "snap-51c05759",
            "volume_type": "",
            "backup_url": "",
            "state": "completed",
            "synced_at": "0001-01-01T00:00:00Z",
            "created_at": "2016-09-29T16:14:13.231417Z",
            "updated_at": "2016-09-29T16:17:30.951344Z"
        },
        {
            "id": "bbe04718-bafc-47e3-a7b6-92fcddfb5f54",
            "region_id": "6dc81375-96cd-41a1-a7f8-11b3eeb695a5",
            "name": "ss13213123",
            "size": 10,
            "driver_name": "ebs",
            "volume_name": "ebs-1",
            "volume_id": "b6d0e671-f68b-4a3d-8a5b-d6b1bbfde6bd",
            "driver_snapshot_id": "snap-323d1f01",
            "volume_type": "",
            "backup_url": "",
            "state": "completed",
            "synced_at": "0001-01-01T00:00:00Z",
            "created_at": "2016-09-20T16:47:42.287953Z",
            "updated_at": "2016-09-20T17:23:30.952346Z"
        }
    ]
}