{
  "type": "PersistentVolumeClaim",
  "resource": {
    "uuid": "6490d53e-ad6a-11e7-878c-56b7042c21e0",
    "name": "pvc0003",
    "status": "Creating/Created/Updating/Updated/Deleting/Deleted/CreateError/UpdateError/DeleteError/Avalable/Bound/Pending/Lost",
    "capacity": "5Gi",
    "created_at": "<created_at_time_str>",
    "updated_at": "<updated_at_time_str>"
  },
  "namespace": {
    "uuid": "uuid",
    "name": "namespace-1"
  },
  "cluster": {
    "uuid": "uuid",
    "name": "cluster-1"
  },
  "persistentvolume": {
    "uuid": "uuid",
    "name": "<pv-name>"
  },
  "referenced_by": [
    {
      "type": "AlaudaService",
      "uuid": "a14238cc-fd7f-49e8-ae9b-277af0bee954",
      "name": "<related-resource-name>"
    }
  ],
  "kubernetes": {
    "kind": "PersistentVolumeClaim",
    "apiVersion": "v1",
    "metadata": {
      "name": "pvc0003",
      "namespace": "default",
      "selfLink": "/api/v1/namespaces/default/persistentvolumeclaims/pvc0003",
      "uid": "5a6a2c71-cb70-11e7-9078-000d3a8206af",
      "resourceVersion": "992297",
      "creationTimestamp": "2017-11-17T08:21:47Z",
      "annotations": {
        "pv.kubernetes.io/bind-completed": "yes",
        "pv.kubernetes.io/bound-by-controller": "yes"
      }
    },
    "spec": {
      "accessModes": [
        "ReadWriteOnce"
      ],
      "resources": {
        "requests": {
          "storage": "5Gi"
        }
      },
      "volumeName": "pv0003",
      "storageClassName": "slow"
    },
    "status": {
      "phase": "Bound",
      "accessModes": [
        "ReadWriteOnce"
      ],
      "capacity": {
        "storage": "5Gi"
      }
    }
  }
}
