{
  "config_name": "sycn-to-ali",
  "space_name":"xufei",
  "namespace": "claasv1",
  "cpu": 0.5,
  "memory": 512,
  "created_by": "liaoj",
  "source" : {
    "type": "repository",
    "info": {
      "registry_name": "test_registry1",
      "project_name": "test_project1",
      "repository_name": "test_repo1",
      "is_public_registry": false
    }
  },
  "dest": [
      {
        "internal_id": "210fd52c-3cf9-4588-bbae-157cfd9b0a33",
        "dest_type": "INTERNAL_REGISTRY"
      },
      {
        "is_http": true,
        "username": "claasv11",
        "endpoint": "testintcluster-claasv1.intindex.alauda.cn:5000",
        "internal_id": null,
        "dest_type": "EXTERNAL_REGISTRY",
        "password": "07Apples"
      }
    ]
}
