{
  "cpu": 0.5,
  "memory": 512,
  "source" : {
    "type": "repository",
    "info": {
      "registry_name": "test_registry1",
      "project_name": "test_project1",
      "repository_name": "test_repo1",
      "is_public_registry": false
    }
  },
  "dest": [
      {
        "is_http": true,
        "username": null,
        "endpoint": "index-int.alauda.cn",
        "internal_id": "210fd52c-3cf9-4588-bbae-157cfd9b0a33",
        "dest_id": "6eb571e3-3fa2-46d6-b03a-bbf78edb451b",
        "dest_type": "INTERNAL_REGISTRY",
        "password": null
      },
      {
        "is_http": true,
        "username": "claasv11",
        "endpoint": "testintcluster-claasv1.intindex.alauda.cn:5000",
        "internal_id": null,
        "dest_id": "205eeb48-ae69-4cb2-8ec7-4bad145f5589",
        "dest_type": "EXTERNAL_REGISTRY",
        "password": "07Apples"
      }
    ]
}
