{
  "errors": [
    {
      "source": 1044,
      "code": "resource_quota_create_error",
      "message": "quantities must match the regular expression '^([+-]?[0-9.]+)([eEinumkKMGTP]*[-+]?[0-9]*)$'"
    },
    {
      "source": 1030,
      "code": "jfrog_namespace_create_error",
      "message": "Post http://mock-server:81/v1/namespaces: dial tcp 172.20.0.4:81: getsockopt: connection refused"
    },
    {
      "source": 1044,
      "code": "sa_add_secret_error",
      "message": "serviceaccounts \"default\" not found"
    }
  ]
}
