{
  "id": 123,
  "name": "admin",
  "team_permission": "none",
  "default_access": "R",
  "created_at": "2016-01-01T10:10:10Z",
  "members": [
    {
      "id": 123,
      "username": "testuser",
      "realname": "John Doe",
      "email": "john@example.com",
      "joined_at": "2016-01-01T10:10:10Z"
    }
  ]
}
