{
  "driver_snapshot_id": "snap-03391430",
  "name": "snap-1",
  "backup_url": "",
  "volume_name": "vol-1",
  "created_at": "2016-10-28T08:13:02.860741927Z",
  "volume_id": "33cc5268-a27a-4134-b541-60c322428649",
  "updated_at": "2016-10-28T08:13:02.860741927Z",
  "volume_type": "",
  "state": "pending",
  "driver_name": "ebs",
  "synced_at": "0001-01-01T00:00:00Z",
  "success": true,
  "size": 10,
  "id": "4c9b0e2b-64e7-4e52-884d-3727f6ae2cbe",
  "region_id": "c57815a9-d20b-4b12-bc1a-3d45c8e62529"
}
