[
  {
    "type": "ack",
    "alert_key": "alarm_name{tagk=tagv,tagk1=tagv1}"
  },
  {
    "type": "silence",
    "alert_key": "alarm_name{tagk=tagv,tagk1=tagv1}",
    "duration": "6h",
    "forget": false
  },
  {
    "type": "delete",
    "alert_key": "alarm_name{tagk=tagv,tagk1=tagv1}"
  }
]
