{
    "basic_config": {
        "num_of_instances": 2,
        "cluster_size": "M",
        "node_tag": [
              {"tag_a_key" : "tag_a_value"},
              {"tag_b_key" : "tag_b_value"}
        ],
        "image_tag": "liaoj-dev",
        "internal_port": 1111,
        "app_tag": [
          {"type":"eureka"}
        ],
        "pod_anti_affinity": [
          {"type":"zuul"}
        ]
    },
    "space_name": "int-azure",
    "name": "eureka-test",
    "region": "app_test",
    "region_alb_version": "v2",
    "namespace": "admin",
    "eureka_port":"1111"
}
