{
  "count": 2,
  "next": null,
  "previous": null,
  "page_size": 20,
  "num_pages": 1,
  "results": [
    {
      "type": "PersistentVolume",
      "resource": {
        "uuid": "<pv_uuid>",
        "name": "pv0003",
        "status": "Creating/Created/Updating/Updated/Deleting/Deleted/CreateError/UpdateError/DeleteError/Available/Bound/Released/Failed",
        "capacity": "5Gi",
        "accessModes": "",
        "persistentVolumeReclaimPolicy": "",
        "created_at": "<created_at_time_str>",
        "updated_at": "<updated_at_time_str>"
      },
      "driver": {
        "name": "ebs|glusterfs"
      },
      "volume": {
        "name": "<volume_name>",
        "uuid": "8bd7d4c6-7847-4357-ba6d-66d8fc0c7b23"
      },
      "cluster": {
        "uuid": "id",
        "name": "cluster-1"
      },
      "referenced_by": {
          "type": "PersistentVolume",
          "uuid": "a14238cc-fd7f-49e8-ae9b-277af0bee954",
          "name": "<related-resource-name>"
      }
    }
  ]
}