{
    "rule_id": "4a0e254e-7359-4c40-bbfd-e50237972aaa",
    "priority": 1048576,
    "type": "user|system",
    "domain": "www.example.com",
    "url": "/test",
    "DSL": "",
    "certificate_id": "e781e906-fa69-4be6-b4f9-6c0f393930c2",
    "certificate_name": "test_ca",
    "description":"This is an example of rule.",
    "session_affinity_policy": "sip-hash|cookie",
    "session_affinity_attribute": "",
    "services": [
        {
            "service_id": "f22e2705-3a8b-4031-858e-0c6ac6668f96",
            "container_port": 80,
            "weight": 100
        }
    ]
}