{
  "display_name": "test123",
  "name": "test123",
  "namespace": "testorg001",
  "created_at": "2017-08-23T06:15:27.272605Z",
  "container_manager": "NONE",
  "updated_at": "2017-08-23T06:15:27.272633Z",
  "state": "RUNNING",
  "env_uuid": "2929ecce-85af-4226-ba4e-4614af36d9d2",
  "attr": {
    "docker": {
      "path": "/var/lib/docker",
      "version": "1.12.3"
    },
    "cloud": {
      "name": "PRIVATE"
    }
  },
  "id": "cbe37221-551a-4828-a860-792d21fbbec7",
  "features": {
    "service": {
      "features": []
    }
  }
}
