{
	"components": [
		{
			"status": "RUNNING",
			"type": "MANAGER",
			"hosts": [
				"172.31.21.235"
			]
		},
		{
			"status": "RUNNING",
			"type": "SCALE",
			"hosts": [
				"172.31.21.235"
			]
		},
		{
			"status": "RUNNING",
			"type": "LOG",
			"hosts": [
				"172.31.21.235"
			]
		},
		{
			"status": "RUNNING",
			"type": "EXEC",
			"hosts": [
				"172.31.21.235"
			]
		}
	]
}