[
    {
        "resource_actions": [
            "subnet:update",
            "subnet:view",
            "subnet:clear",
            "subnet:create",
            "subnet:delete"
        ],
        "kubernetes": {
            "kind": "Subnet",
            "spec": {
                "project_name": "",
                "created_at": "2018-06-14T09:29:38.115339Z",
                "namespace": "",
                "updated_at": "2018-06-14T09:29:38.115339Z",
                "created_by": "yanzhu",
                "subnet_name": "test-subnet",
                "cidr_block": "10.4.1.0/16",
                "gateway": "10.4.1.1"
            },
            "apiVersion": "alauda.io/v1",
            "metadata": {
                "name": "test-subnet",
                "clusterName": "",
                "namespace": "",
                "resourceVersion": "3162729",
                "creationTimestamp": "2018-06-14T09:29:40Z",
                "selfLink": "/apis/alauda.io/v1/test-subnet",
                "uid": "767a2e43-6fb5-11e8-b238-000d3a801ce0"
            }
        }
    }
]