{
  "full_description": "full_description:test",
  "description": "description:test private regisitry repo1",
  "name": "private_test_repo4",
  "created_at": "2016-12-21T06:53:45.127917Z",
  "pulled_at": null,
  "namespace": "claasv1",
  "upload": 0,
  "created_by": "claasv1",
  "updated_at": "2016-12-21T07:02:16.512165Z",
  "project": {
    "project_name": "liaoj-project1",
    "project_id": "dffa1fb4-0fef-4aec-98f4-cf8f300190af"
  },
  "privilege": "A",
  "pushed_at": null,
  "registry": {
    "is_public": false,
    "endpoint": "private-registry-int-ali-1.alauda.cn:5000",
    "display_name": "",
    "uuid": "7d8c7f81-f652-4f37-9507-83dc6bf4a706",
    "name": "private-registry-int-1",
    "integration_id": "396392ee-da7f-408c-b2c3-891200a8c87f",
    "tag_max_number": 100,
    "tag_protected_max_number": 10
  },
  "download": 0,
  "is_public": false,
  "tag_protected_count": 10,
  "resource_filter_params": {
    "namespace": "claasv1",
    "uuid": "ffa2635f-0960-4bc7-b47f-0d911b3806d8"
  },
  "uuid": "ffa2635f-0960-4bc7-b47f-0d911b3806d8"
}
