{
  "uuid": "1234-1234-1234",
  "name": "project-one",
  "status": "creating",
  "created_at":"2016-01-01T10:10:10Z",
  "updated_at":"2016-01-01T10:10:10Z",
  "resource_actions": [
    "project:view",
    "project:delete"
  ],
  "roles": [
    {
      "id": 1,
      "required": true,
      "depends_on": [],
      "status": "success",
      "parents": [],
      "name": "dev-parent-project-one",
      "uuid": "1234-1234-12343",
      "permissions": [
        {
          "resource": ["*"],
          "actions": ["service:*", "application:*"],
          "constraints": [
            {
              "res:cluster": "dev"
            }
          ]
        }
      ]
    },
    {
      "id": 2,
      "required": false,
      "depends_on": [1],
      "status": "creating",
      "parents": [
         {
            "id": 1,
            "name": "dev-parent-project-one",
         }
      ],
      "name": "dev-project-one",
      "permissions": [
        {
          "resource": ["*"],
          "actions": ["service:*", "application:*"],
          "constraints": [
            {
              "res:cluster": "dev",
              "res:space": "dev-[name]",
            }
          ]
        }
      ]
    }
  ],
  "resources": [
    {
      "id": 3,
      "compulsory": false,
      "depends_on": [],
      "create": false,
      "name": "dev-[name]",
      "type": "REGISTRY_PROJECT",
      "parent_resource": {
        "type": "REGISTRY",
        "name": "dev-registry",
        "uuid": "1234-1234-1234",
        "details": "http://dev-registry:5000"
      },
      "payload": {}
    },
    {
      "id": 4,
      "depends_on": [],
      "compulsory": false,
      "create": true,
      "status": "error",
      "errors": [
        {"source": "1007", "code": "permission_denied", "message": "lalala"}
      ],
      "name": "dev-[name]",
      "type": "SPACE",
      "payload": {}
    }
  ]
}
