{
  "config_uuid":"123456",
  "registry_index": "index.alauda.cn",
  "registry_name": "test",
  "registry_project": "alaludaorg",
  "image_name": "test",
  "image_tag": "latest",
  "envvars": [
    {
      "name": "",
      "value":""
    },
    {
      "name": "",
      "value":""
    }
  ],
  "envfiles": [
    {
      "uuid":"",
      "name": "test-env-1"
    },
    {
      "uuid":"",
      "name": "test-env-2"
    }
  ],
  "created_by": "test",
  "user_token": "",
  "namespace": ""
}
