{
  "job_uuid": "123",
  "config_name": "",
  "project_name": "test",
  "space_name": "test",
  "region_name": "INT",
  "status": "BLOCKED | WAITING | RUNNING | STOPPED | SUCCEEDED | FAILED",
  "schedule_rule": "*****",
  "command_type": "DEFAULT_COMMAND | CUSTOM_COMMAND",
  "command": "/run.sh",
  "is_auto_scheduled": false,
  "registry_index": "index.alauda.cn",
  "registry_name": "alauda_public_registry",
  "registry_project": "alaudaorg",
  "image_name":" hello-world",
  "image_tag":" latest",
  "envvar": [
    {
      "name": "",
      "value": ""
    },
    {
      "name": "",
      "value": ""
    }
  ],
  "envfiles": [
    {
      "uuid": "",
      "name": "test-env-1"
    },
    {
      "uuid": "",
      "name": "test-env-2"
    }
  ],
  "timeout": "120",
  "cpu": 0.5,
  "memory": 512,
  "created_by": "test",
  "created_at": "",
  "started_at": "",
  "ended_at": ""
}
