[
    {
        "resource_type": "project",
        "actions": ["project:view"]
    },
    {
        "resource_type": "space",
        "actions": ["space:view", "space:consume"]
    },
    {
        "resource_type": "namespace",
        "actions": ["namespace:view", "namespace:consume"]
    },
    {
        "resource_type": "cluster",
        "actions": ["cluster:view"]
    },
    {
        "resource_type": "registry",
        "actions": ["registry:view"]
    },
    {
        "resource_type": "registry_project",
        "actions": ["registry_project:view"]
    }
]