{
    "uuid": "123-123-123",
    "name": "template-name",
    "display_name": "开发工程师",
    "display_name_en": "Developer",
    "description": "",
    "scope": {
        "project": true,
        "space": true
    },
    "permissions": [
        {
            "uuid": "321-321-321",
            "template_uuid": "123-123-123",
            "resource_type": "service",
            "resource": ["*"],
            "actions": ["service:*"],
            "constraints": [
                {
                    "res:cluster": "dev"
                }
            ]
        }
    ],
    "official": true,
    "created_at":"2016-01-01T10:10:10Z",
    "updated_at":"2016-01-01T10:10:10Z"
}