{
    "username": "john",
    "namespace": "namespace",
    "is_admin": false,
    "scopes": [
        {
            "project": "project",
            "space": "space"
        },
        {
            "project": "project2",
            "space": "space2"
        }
    ]
}