[],

[{
  "_comment": "状态为FAIL, step_at表示在那一步失败的",
  "uuid": "18935230-861d-49b4-8876-fb6beca6a225",
  "name": "default",
  "namespace": "myorg",
  "status": "FAIL",
  "step_at": "DOWNLOAD_CODE",
  "url": "test.git.com/test_repo.git",
  "type": "git",
  "branch": "master",
  "path": "/helm",
  "username": "my_username",
  "password": "my_password",
  "templates":[
  ],
}],

[{
  "_comment": "状态为SUCCESS，并且模板列表为空，说明导入的格式有问题",
  "uuid": "18935230-861d-49b4-8876-fb6beca6a225",
  "name": "default",
  "namespace": "myorg",
  "status": "SUCCESS",
  "step_at": "DOWNLOAD_CODE",
  "url": "test.git.com/test_repo.git",
  "type": "git",
  "branch": "master",
  "path": "/helm",
  "username": "my_username",
  "password": "my_password",
  "templates":[
  ],
}],

[{
  "_comment": "状态为IN_PROGRESS，根据step_at显示，DOWNLOAD_CODE下载代码，PARSE_CODE解析代码",
  "uuid": "18935230-861d-49b4-8876-fb6beca6a225",
  "name": "default",
  "namespace": "myorg",
  "status": "IN_PROGRESS",
  "step_at": "DOWNLOAD_CODE",
  "url": "test.git.com/test_repo.git",
  "type": "git",
  "branch": "master",
  "path": "/helm",
  "username": "my_username",
  "password": "my_password",
  "templates":[
  ],
}],

[{
  "_comment": "正常的",
  "uuid": "18935230-861d-49b4-8876-fb6beca6a225",
  "name": "default",
  "namespace": "myorg",
  "status": "SUCCESS",
  "step_at": "",
  "url": "test.git.com/test_repo.git",
  "type": "git",
  "branch": "master",
  "path": "/helm",
  "username": "my_username",
  "password": "my_password",
  "templates":[
    {
      "resource_actions": [
          "helm_template_repo:manage",
          "helm_template_repo:view",
      ],
      "uuid": "99435da1-4915-4d32-87c2-5e1c984a6689",
      "is_active": true,
      "name": "mysql",
      "display_name": "my mysql",
      "description": "this is a mysql",
      "icon": "http://icon.com",
      "installed_app_num": 5
    },
    {
      "resource_actions": [
          "helm_template_repo:manage",
          "helm_template_repo:view",
      ],
      "uuid": "99435da1-4915-4d32-87c2-5e1c984a6689",
      "is_active": false,
      "name": "redis",
      "display_name": "my mysql",
      "description": "this is a redis",
      "icon": "http://icon.com",
      "installed_app_num": 6
    }
  ],
}]
