{
    "uuid": "",
    "created_at": "2017-10-15T12:11:52.572029Z",
    "updated_at": "2017-10-15T12:11:52.572029Z",
    "created_by": "jtcheng",
    "name": "secretshop",
    "display_name": "SecretShopDevops",
    "space_name": "",
    "namespace": "alaudaorg",
    "description": "devops pipeline for secretshop",
    "icon": "icon-nodejs",
    "jenkins_integration_name": "jenkins",
    "jenkins_integration_id": "11e11161-750a-4e3e-a774-fd272b2f794c",
    "type": "INLINE", /* INLINE, FROM_SCM  */
    "script": "node{stage(\"build\"){echo \"hello alauda-jenkins\"}}",
    "url": "http://jenkins.alauda.cn/job/secretshop/", /* url on jenkins */
    "script_path": "Jenkinsfile",
    "pipeline_scm": {
        "source": "GIT", /*GIT,SVN*/
        "repository_path": "http://github.com/chengjingtao/alauda.git",
        "credential_name": "chengjingtao-github",
        "branch": "master" /*Only need type=GIT*/
        /*
        "source": "GITHUB",
        "repository_path": "chengjingtao/demo01",
        "crendential_name": "",
        "branch": ""
        */
    },
    "triggers": [
        {
            "type": "cron",
            "meta": {
                "cron": "*/1 * * * *"
            }
        },
        {
            "type": "image_change",
            "meta": {
                "registry_uuid": "11e11161-750a-4e3e-a774-fd272b2f794c",
                "registry": "alauda_public_registry",
                "registry_display_name": "Alauda",
                "repository_uuid": "11e11161-750a-4e3e-a774-fd272b2f794c",
                "repository": "alauda-ci-test-public-trigger",
                "namespace": "registry namespace",
                "image_tag_filter": "latest"
            }
        },
        {
            "type": "code_change_hook",
            "meta": {
                "webhook_url": "http://api.alauda.cn/jenkins_pipelines/alauda/webhook/xxxx"
            }
        }
    ],
    "parameters": [
        {
            "name": "TAG",
            "type": "string",
            "defaultValue": "latest",
            "description": "tag of image"
        }
    ],
    "environments": [
        {
            "name": "SCM_REPO",
            "value": "https://github.com/chengjingtao/abc.git"
        },
        {
            "name": "IMAGE",
            "value": "index.alauda.cn/alaudaorg/razzil"
        }
    ],
    // 增加模板信息
    "template": {
        "uuid": "",
        "arguments_values": {},
        "template": {
            "uuid": "",
            "created_at": "2017-10-15T12:11:52.572029Z",
            "updated_at": "2017-10-15T12:11:52.572029Z",
            "created_by": "jtcheng",
            "name": "alaudaServiceDeploy",
            "display_name": {
                "zh-CN": "",
                "en": ""
            },
            "namespace": "alaudaorg",
            "deprecated": false,
            "definition": {
                "apiVersion": "jenkins.alauda.io/v1beta1",
                "kind": "pipelinetemplates",
                "metadata": {
                    "name": "alaudaServiceDeploy",
                    "annotations": {
                        "alauda.io/displayName.zh-CN": null,
                        "alauda.io/displayName.en": null,
                        "alauda.io/descripiton.zh-CN": null,
                        "alauda.io/descripiton.en": null,
                        "alauda.io/version": 0.1,
                        "alauda.io/style.icon": ""
                    },
                    "labels": {
                        "catgory": "CI"
                    }
                }
            }
        },
        "upgrade":{
            "uuid": ""
        }
    }
}
