{
    //使用模板创建时需要
    "template": {
        "uuid": "",
        "arguments_values": {
            "tag": "latest",
            "image": "index.alauda.cn/alaudaorg/razzil",
            "dockerDir": "./Docker"
        }
    },

    "name": "secretshop",
    "display_name": "SecretShopDevops",
    "namespace": "alaudaorg",
    "space_name": "",
    "icon": "icon-nodejs",
    "created_by": "jtcheng",
    "description": "devops pipeline for secretshop",
    "jenkins_integration_name": "jenkins",
    "jenkins_integration_id": "11e11161-750a-4e3e-a774-fd272b2f794c",
    "type": "INLINE", /* INLINE, FROM_SCM  */
    "script": "node{stage(\"build\"){echo \"hello alauda-jenkins\"}}",
    "script_path": "Jenkinsfile",
    "pipeline_scm":
    {
        "source": "GIT",  /*GIT,SVN, BITBUCKET*/
        "repository_path": "http://github.com/chengjingtao/alauda.git",
        "credential_name": "chengjingtao-github",
        "branch": "master" /*Only need when type=GIT*/

        /*
        "source": "GITHUB",
        "repository_path": "chengjingtao/demo01",
        "branch": ""
        */
    },
    "triggers":
    [
        {
            "type": "cron",
            "meta":{
                "cron": "*/1 * * * *"
            }
        },
        {
            "type":"image_change",
            "meta":{
                "registry_uuid": "11e11161-750a-4e3e-a774-fd272b2f794c",
                "registry": "alauda_public_registry",
                "registry_display_name": "Alauda",
                "repository_uuid": "11e11161-750a-4e3e-a774-fd272b2f794c",
                "repository": "alauda-ci-test-public-trigger",
                "namespace": "registry namespace",
                "image_tag_filter": "latest"
            }
        },
        {
            "type":"code_change_hook",
            "meta":{
            }
        }
    ],
    "parameters":
    [
        {
        "name": "TAG",
        "type": "string",
        "defaultValue": "latest",
        "description": "tag of image"
        }
    ],
    "environments":
    [
        {
            "name": "SCM_REPO",
            "value": "https://github.com/chengjingtao/abc.git"
        },
        {
            "name": "IMAGE",
            "value": "index.alauda.cn/alaudaorg/razzil"
        }
    ]
}
