{
  "uuid": "abbc-asdb-asdb-asdb",
  "description": "description",
  "artifact_enabled": true,
  "schedule_config_id": "xxxxxx",
  "schedule_config_secret_key": "xxxxxx",
  "triggers": {
    // trigger must be only one
    "repository": {
      "registry": "registry-name",
      "registry_uuid": "",
      "repository": "repository-name",
      "repository_uuid": "12312-asdas-asdas-asdads",
      "image_tag": "latest",
      "schedule_rule": "0 8 * * *",
      "auto_trigger_enabled": false
    },
    "build": {
      "build_config_uuid": "build_config_uuid",
      "build_config_name": "build_config_name",
      "schedule_rule": "0 8 * * *",
      "auto_trigger_enabled": false
    }
  },
  "stages": [{
    "uuid": "12323-123123-123",
    "order": 1,
    "region_uuid": "12323-123123-123",
    "name": "name",
    "tasks": [{
        "uuid": "12323-123123-123",
        "order": 1,
        "name": "task-one",
        "type": "test-container",
        "data": {
          "registry_uuid": "",
          "registry_index": "index.docker.io",
          "docker_image_tag": "library/redis",
          "link": {
            "type": "application-service",
            "parent": "app",
            "parent_uuid": "7d3f21e8-9e26-4028-92a4-9d01c0b78b93",
            "name": "service-one",
            "uuid": "7d3f21e8-9e26-4028-92a4-9d01c0b78b93"
          },
          "command": "",
          "env_file_uuid": "123123-123123-12323",
          "env_vars": {
            "PORT": "90"
          }
        },
        "timeout": 0
      },
      {
        "uuid": "12323-123123-123",
        "order": 2,
        "name": "task-two",
        "type": "artifact-upload", // or "artifact-download"
        "data": {
          "share_path": "crm/website"
        },
        "timeout": 0
      },
      {
        "uuid": "12323-123123-123",
        "order": 3,
        "name": "task-three",
        "type": "sync-registry",
        "data": {
          "config_uuid": "config_uuid",
          "config_name": "config_name",
          "share_path": "/images/<namespace>/<project>/<image_repo_name>"
        },
        "timeout": 60
      },
      {
        "uuid": "xxxxxxx-yyyyyyy-zzz",
        "order": 4,
        "name": "task-four",
        "type": "ci-report",
        "data": {
          "email_receivers": "a@b.c,b@c.d",
          "sonar_project_key": "sonar.demo"
        },
        "timeout": 0
      }  
    ]
  }],
  "on_end": [{
    "order": 1,
    "name": "task-final",
    "type": "notification",
    "data": {
      "notification_uuid": ""
    }
  }],
  "created_at": "2016-01-01T10:10:10Z",
  "updated_at": "2016-01-01T10:10:10Z"
}