{
    "resource": {
      "name": "app-name"
    },
    "namespace": {
      "uuid": "<namespace-uuid>",
      "name": "<namespace-name>"
    },
    "cluster": {
      "uuid": "<cluster-uuid>",
      "name": "<cluster-name>"
    },
    "kubernetes": [
      {
        "apiVersion": "v1",
        "kind": "Service",
        "metadata": {
          "labels": {
            "run": "nginx"
          },
          "name": "nginx",
          "namespace": "default"
        },
        "spec": {
          "ports": [
            {
              "port": 80,
              "protocol": "TCP",
              "targetPort": 80
            }
          ],
          "selector": {
            "run": "nginx"
          },
          "sessionAffinity": "None",
          "type": "ClusterIP"
        }
      },
      {
        "apiVersion": "apps/v1beta1",
        "kind": "Deployment",
        "metadata": {
          "name": "nginx",
          "labels": {
            "aaa": "nginx"
          }
        },
        "spec": {
          "replicas": 1,
          "template": {
            "metadata": {
              "labels": {
                "run": "nginx"
              }
            },
            "spec": {
              "containers": [
                {
                  "name": "nginx",
                  "image": "nginx:1.9.0",
                  "ports": [
                    {
                      "containerPort": 80,
                      "name": "web"
                    }
                  ]
                }
              ]
            }
          }
        }
      }
    ]
  }