{
    "description": "this is an example config.",
    "commit_message": "initial commit",
    "content": [
        {
            "key": "name1",
            "value": "value1"
        },
        {
            "key": "name2",
            "value": "value2"
        }
    ]
}
