{
  "apiVersion": "servicecatalog.k8s.io/v1beta1",
  "kind": "ServiceInstance",
  "metadata": {
    "name": "ups-instance",
    "namespace": "test-ns",
    "resourceVersion": "2261561"
  },
  "spec": {
    "clusterServiceClassExternalName": "mariadb",
    "clusterServicePlanExternalName": "default",
    "parameters": {
      "key1": "value1",
      "key2": "value2"
    }
  }
}
