{
  "uuid": "4d255a44-b075-4352-9526-0fb1ec1cc2a2",
  "display_name": "xxx",
  "name": "xxx",
  "space_name": "xxx",
  "space_uuid": "ccc",
  "start_time": "-300",
  "end_time": "0",
  "created_by": "cfshang",
  "used_at": 1500018179,
  "created_at": 1500018179,
  "updated_at": 1500018179,
  "query_conditions":{
    "clusters": ["INT_ALI", "class"],
    "nodes": ["10.0.0.7"],
    "services": [
      {
        "name": "yxli-svc-2",
        "uuid": "ed4efdd9-ef8a-4025-aa4d-13abde31a110",
        "space_name": "",
        "region_name": "tencent_ops",
        "app_name": "app-tencent-ops-yxli-svc-2",
        "kube_namespace": "jenkins"
      }
    ]
}
