{
  "display_name": "xxx",
  "name": "xxx",
  "space_name": "ccc",
  "start_time": "-300",
  "end_time": "0",
  "query_conditions": {
    "services": "ed4efdd9-ef8a-4025-aa4d-13abde31a110",
    "nodes": "10.0.0.7,10.0.0.8",
    "clusters": "INT_ALI,class",
    "paths": "tresdin,test-hello",
    "query_string": "ERROR,DEBUG",
    "instances": "88d5ec65,e3a84aab"
  }
}
