{
  "name":"project2-dev-space",
  "description":"this space is for dev team in project1",
  "quotas":[
  {
    "name":"service.cpu",
    "hard":1000,
    "used":0
   },
  {
    "name":"service.mem",  
    "hard":100,
    "used":0
  }
  ]
}
