{
    	"id": "1",
    	"Name":"project2-dev-space",
   	"description":"this space is for dev team in project1",
	"status":"running",
  	"quotas":[
        {
            "name":"service.cpu",
            "hard":2000,
            "used":100
        },
        {
            "name":"service.mem",  
            "hard":200,
            "used":0
        }
    ]
}
