{
  "metrics": [
    {
      "type": "line",
      "metric": "comp.dd_agent.mem.rss",
      "over": "",
      "group_by": "",
      "aggregator": "avg"
    }
  ],
  "display_name": "ddagen 内存2",
  "namespace": "alaudaorg"
}
