{
  "message": "SUCCESS",
  "code": 0,
  "data": {
    "metrics": [
      {
        "aggregator": "avg",
        "metric": "comp.dd_agent.mem.rss",
        "group_by": "",
        "type": "line",
        "over": ""
      }
    ],
    "created_at": 1490249823902,
    "display_name": "ddagen 内存",
    "uuid": "4aa31638-cb74-46da-914c-ec632cc8d24e",
    "updated_at": 1490249823902
  }
}