{
  "name": "xxx",
  "description": "haha",
  "saved_search_detail": {
    "display_name": "yyy",
    "name": "yyy",
    "start_time": "-300",
    "end_time": "0",
    "used_at": 1500018179,
    "created_at": 1500018179,
    "updated_at": 1500018179,
    "query_conditions":{
      "clusters": ["INT_ALI", "class"],
      "nodes": ["10.0.0.7"]
    }
  },
  "log_source_detail": {
    "log_source_uuid": "",
    "log_source_name": ""
  },
  "statistic": "count",
  "comparison_operator": ">=",
  "check_mode": "interval | crontab",
  "check_period_value": "3000 | */5 * * * *",
  "threshold": "10",
  "status": "OK|ALARM|INVALID",
  "created_at": "1500018179",
  "updated_at": "1500018179",
  "alarm_actions":{
    "notifications": [
        {
          "name": "notification_name",
          "uuid": "notification_uuid"
        }
    ],
    "services": [
      {
        "name": "space_name.app_name.service_name",
        "uuid": "service_uuid",
        "type": "scaling_in | scaling_out"
      }
    ]
  },
  "ok_actions": {
    "notifications": [
      {
        "name": "notification_name",
        "uuid": "notification_uuid"
      }
    ]
  }
}
