{
  "results": [
    {
      "uuid": "",
      "created_at": "2017-10-15T12:11:52.572029Z",
      "updated_at": "2017-10-15T12:11:52.572029Z",
      "created_by": "jtcheng",

      "name": "alaudaServiceDeploy",
      "display_name": {
        "zh-CN": "",
        "en": ""
      },
      "namespace": "alaudaorg",
      "deprecated": false,
      "definition":{
        "apiVersion": "jenkins.alauda.io/v1beta1",
        "kind": "pipelinetemplates",
        "metadata": {
          "name": "alaudaServiceDeploy",
          "annotations": {
            "alauda.io/displayName.zh-CN": null,
            "alauda.io/displayName.en": null,
            "alauda.io/readme.zh-CN": null,
            "alauda.io/readme.en": null,
            "alauda.io/descripiton.zh-CN": null,
            "alauda.io/descripiton.en": null,
            "alauda.io/version": 0.1,
            "alauda.io/style.icon": ""
          },
          "labels": {
            "catgory": "CI"
          }
        },
        "spec": {
          "withSCM": true,
          "stages": [
            {
              "name": "",
              "conditions":null,
              "tasks": [
                {
                  "name": "Build",
                  "type": "public/alaudaBuild",
                  "timeout": 60,
                  "conditions": null,
                  "approve": null,
                  "environments": null
                }
              ]
            }
          ],
          "arguments": [
            {
              "displayName": {
                "zh-CN": "基本信息",
                "en": "basic"
              },
              "items": [
                {
                  "name": "dockerfileName",
                  "schema":{
                    "type": "string"
                  },
                  "validation":{
                    "maxLength": 20
                  },
                  "display":{
                    "type": "",
                    "releated":"",
                    "name":{
                      "zh-CN": "",
                      "en": ""
                    },
                    "description":{
                      "zh-CN":"",
                      "en":""
                    }
                  },
                  "default": "Dockerfile",
                  "required": true
                }
              ]
            }
          ]
        }
      }
    }
  ]
}