{
    "info": {
        "en": "english info",
        "zh": "中文信息"
    },
    "name": "Batch Processing",
    "instruction": {
        "en": "english instruction",
        "zh": "中文详细介绍"
    },
    "basic_config": [
      {
          "attribute_name": "cluster_size",
          "type": "option",
          "description": {
              "en": "Size of instances",
              "zh": "实例大小"
          },
          "option": [
              "XXS",
              "XS",
              "S",
              "M",
              "L",
              "XL"
          ],
          "display_name": {
              "en": "Instance size",
              "zh": "实例大小"
          }
      },
      {
          "attribute_name": "node_tag",
          "type": "multi_option",
          "description": {
              "en": "Deploy to specific host",
              "zh": "定点部署"
          },
          "option": {},
          "display_name": {
              "en": "Node tag",
              "zh": "主机标签"
          }
      },
      {
          "attribute_name": "image_tag",
          "description": {
              "en": "",
              "zh": ""
          },
          "value": "version",
          "key": "version",
          "display_name": {
              "en": "image tag",
              "zh": "镜像标签"
          },
          "type": "option",
          "option": [
              {
                  "version": "v0.0.2"
              }
          ]
      },
      {
          "attribute_name": "internal_port",
          "type": "string",
          "display_name": {
              "en": "port",
              "zh": "容器端口"
          }
      },
      {
          "attribute_name": "app_tag",
          "type": "table_input",
          "display_name": {
              "en": "app tag",
              "zh": "应用标签"
          }
      },
      {
          "attribute_name": "pod_anti_affinity",
          "description": {
              "en": "can choose more than one tag, split by ,",
              "zh": "能够指定多个反亲和标签，以逗号分隔"
          },
          "type": "tags_input",
          "display_name": {
              "en": "pod anti affinity",
              "zh": "反亲和标签"
          }
      }
    ],
    "advanced_config": [
      {
          "attribute_name": "config_server_selector",
          "description": {
              "en": "choose a config server",
              "zh": "选择一个config server"
          },
          "type": "options",
          "display_name": {
              "en": "config serve",
              "zh": "config server"
          }
      }
    ]
}
