{
  "uuid": "",
  "created_at": "2017-10-15T12:11:52.572029Z",
  "updated_at": "2017-10-15T12:11:52.572029Z",
  "created_by": "jtcheng",

  "name": "alauda",
  "display_name": "Alauda Pipeline Templates",
  "namespace": "alaudaorg",
  "is_public": false,
  "provider": "user",
  "url": "http://github.com/chengjingtao/pipeline-templates",
  "type": "GIT", /*GIT SVN*/
  "branch": "master",
  "username": "chengjingtao",
  "password": "123",
  "last_job": {
    "status": "",
    "started_at": "2017-10-15T12:11:52.572029Z",
    "ended_at": "2017-10-15T12:11:52.572029Z",
    "report":{
      "errors":[
        {
          "code": "",
          "message": ""
        }
      ],
      "items":[
        {
          "name": "alaudaBuild",
          "path": "./definition/pipelines/alaudaBuild/pipeline.yaml",
          "step_at": "CLONE", /*BEGIN, CLONE, IMPORT,  SUCCESS,FAIL*/
          "status": "FAIL", /* SUCCESS, FAIL */
          "action": "UPDATE", /*ADD UPDATE DELETE SKIP*/ 
          "old_version": "",
          "new_version": "",
          /*失败时会有失败的信息*/
          "errors":[
            {
              "code": "",
              "message": ""
            }
          ]
        }
      ]
    },
    "source_uuid": "",
    "branch": "master",
    "version": "12dfadf-23fads-df23",
    "created_by": "jtcheng"
  }
}