{
  "refresh": true,
  "source":{
    "namespace": "alaudaorg",
    "url": "http://github.com/chengjingtao/pipeline-templates",
    "type": "GIT", /*GIT SVN*/
    "branch": "master",
    "username": "chengjingtao",
    "password": "123"
  }
}