{
  "succeeded": [],
  "failed": [
    {
      "name": "alarm_test_2_node_10.172.231.189",
      "alarm_uuid": "eba03683-4801-4e37-a011-bf981e94d3f5",
      "metric_name": "node-mem-percent",
      "evaluation_periods": 1,
      "period": 60,
      "statistic": "Minimum",
      "comparison_operator": "GreaterThanOrEqualToThreshold",
      "threshold": 0.88,
      "threshold_display": 88,
      "dimensions": [
        {
          "name": "node_private_ip",
          "value": "10.172.231.189"
        }
      ],
      "namespace": "claasv1",
      "resource_name": "shenshengman",
      "resource_type": "NODE",
      "query": "avg(q(\"avg:claasv1.node.mem.percent{host=literal_or(10.172.231.189),region_id=literal_or(1a3b7d19-8dc5-492c-850c-4719c2eb8697)}\", \"60s\", \"\"))",
      "actions_enabled": false,
      "resource_actions": [
        "alarm:create",
        "alarm:delete",
        "alarm:update",
        "alarm:view"
      ],
      "created_by": "feixu",
      "created_at": "2017-06-02T04:08:01.115Z",
      "parent_resource_name": "",
      "description": "update",
      "state_value": "INSUFFICIENT_DATA"
    }
  ]
}
