[
  {
    "state": "RUNNING",
    "labels": [],
    "type": "SYS",
    "private_ip": "172.18.0.8",
    "resources": {}
  },
  {
    "attr": {
      "comps_updated_at": "2017-08-10 03:06:48.697395+00:00",
      "components": [
        {
          "status": "RUNNING",
          "type": "LOG"
        }
      ],
      "node_tag": "ip:10.2.0.6",
      // 主机是否可以调度,k8s区
      "schedulable": true
    },
    "labels": [
      {
        "editable": true,
        "value": "hhehe",
        "key": "hhehe"
      },
      {
        "editable": true,
        "value": "value1",
        "key": "key1"
      }
    ],
    // Slave主机上会有,属于老的labels格式。已经被labels取代。
    "node_tag": "ip:10.2.0.6",
    // 常见状态: DEPLOYING/RUNNING/STOPPED/UNKOWN/OFFLINE/ERROR/CRITICAL/
    // OpenStack相关: BUILD/ACTIVE/SHUTOFF/SHUTTING_DOWN
    // 节点维护相关: DRAINING
    "state": "RUNNING",
    "private_ip": "172.18.0.9",
    // 主机类型: SLAVE/SYS/EMPTY/SYSLAVE. SYSLAVE表示k8s中的既是master又是slave的节点
    "type": "SLAVE",
    // 主机资源信息。SLAVE/SYSLAVE节点会返回此信息
    "resources": {
      "avail_disk": "3.9G",
      "total_cpus": "1",
      "total_mem": "496M",
      "countainers_count": 100,
      "pods_count": 99
    }
  }
]