{
    "ci_envs": {
        "language": "golang",
        "runtimes": [
            {
                "name": "1.6"
            }
        ]
    },
    "ci_steps": [
        "make build"
    ],
    "sonarqube":{
        "integration_instance_id": "xxx-xxxx",
        "build_integration_config": {
            "quality_gate": "default",
            "code_encoding": "utf8",
            "code_language": "",
            "code_scan_path": "./src"
        }
      }
}