{
  "image_repo": {
      "registry": {
          "name": "private-registry-int-1"
       },
       "project": {
       	    "name": "test_project"
       },
    "name": "testg"
  },
  "code_repo": {
      "code_repo_username": "",
      "code_repo_password": "",
      "code_repo_type": "BRANCH",
      "code_repo_type_value": "master",
      "dockerfile_location": "/",
      "build_context_path": "/"
  },
  "build_filters":{
    "committers": ["wqlu", "sywang"]
  },
  "ci_enabled": true,
  "ci_config_file_location": "/",
  "build_image_enabled": true,
  "ci_envs": {
    "language": "golang",
    "runtimes": [
      {
          "name": "go1.7",
          "has_addons": false
      }
    ]
  },
  "dockerfile_info": {
      "uuid": "11e11161-750a-4e3e-a774-fd272b2f794a",
      "name": "python"
  },
  "ci_image_name": "",
  "ci_image_tag": "",
  "customize_tag": "latest",
  "auto_tag_type": "CUSTOM_RULE",
  "customize_tag_rule": "{branch_name}-{author_email}-test",
  "image_cache_enabled": true,
  "auto_build_enabled": true,
  "nodification": {
    "name": "notification2"
  },
  "schedule_rule": "* * * * *",
  "cpu": 0.5,
  "memory": 512,
  "sonarqube":{
      "integration_instance_id": "xxx-xxxx",
      "build_integration_config": {
          "quality_gate": "default",
          "code_encoding": "utf8",
          "code_language": "java",
          "code_scan_path": "./src"
      }
  }
}
