{
  "nodes": {
    "fb675e40-7de2-11e8-93ad-5254004d4fc3": {
      "kind": "Service",
      "apiVersion": "v1",
      "name": "deploy-heketi",
      "namespace": "default",
      "selfLink": "/api/v1/namespaces/default/services/deploy-heketi",
      "uid": "fb675e40-7de2-11e8-93ad-5254004d4fc3",
      "resourceVersion": "412",
      "creationTimestamp": "2018-07-02T10:30:46Z",
      "labels": {
        "deploy-heketi": "support",
        "glusterfs": "heketi-service"
      },
      "annotations": {
        "description": "Exposes Heketi Service",
        "kubectl.kubernetes.io/last-applied-configuration": "{\"apiVersion\":\"v1\",\"kind\":\"Service\",\"metadata\":{\"annotations\":{\"description\":\"Exposes Heketi Service\"},\"labels\":{\"deploy-heketi\":\"support\",\"glusterfs\":\"heketi-service\"},\"name\":\"deploy-heketi\",\"namespace\":\"default\"},\"spec\":{\"ports\":[{\"name\":\"deploy-heketi\",\"nodePort\":62000,\"port\":8080,\"targetPort\":8080}],\"selector\":{\"name\":\"deploy-heketi\"},\"type\":\"NodePort\"}}\n"
      }
    },
    "fb69fa0a-7de2-11e8-93ad-5254004d4fc3": {
      "kind": "Deployment",
      "apiVersion": "extensions/v1beta1",
      "name": "deploy-heketi",
      "namespace": "default",
      "selfLink": "/apis/extensions/v1beta1/namespaces/default/deployments/deploy-heketi",
      "uid": "fb69fa0a-7de2-11e8-93ad-5254004d4fc3",
      "resourceVersion": "3184227",
      "generation": 1,
      "creationTimestamp": "2018-07-02T10:30:46Z",
      "labels": {
        "deploy-heketi": "deployment",
        "glusterfs": "heketi-deployment"
      },
      "annotations": {
        "deployment.kubernetes.io/revision": "1",
        "description": "Defines how to deploy Heketi",
        "kubectl.kubernetes.io/last-applied-configuration": "{\"apiVersion\":\"extensions/v1beta1\",\"kind\":\"Deployment\",\"metadata\":{\"annotations\":{\"description\":\"Defines how to deploy Heketi\"},\"labels\":{\"deploy-heketi\":\"deployment\",\"glusterfs\":\"heketi-deployment\"},\"name\":\"deploy-heketi\",\"namespace\":\"default\"},\"spec\":{\"replicas\":1,\"template\":{\"metadata\":{\"labels\":{\"deploy-heketi\":\"pod\",\"glusterfs\":\"heketi-pod\",\"name\":\"deploy-heketi\"},\"name\":\"deploy-heketi\"},\"spec\":{\"containers\":[{\"env\":[{\"name\":\"HEKETI_EXECUTOR\",\"value\":\"kubernetes\"},{\"name\":\"HEKETI_FSTAB\",\"value\":\"/var/lib/heketi/fstab\"},{\"name\":\"HEKETI_SNAPSHOT_LIMIT\",\"value\":\"14\"},{\"name\":\"HEKETI_KUBE_GLUSTER_DAEMONSET\",\"value\":\"y\"}],\"image\":\"index.alauda.cn/claas/heketi:6\",\"imagePullPolicy\":\"IfNotPresent\",\"livenessProbe\":{\"httpGet\":{\"path\":\"/hello\",\"port\":8080},\"initialDelaySeconds\":30,\"timeoutSeconds\":3},\"name\":\"deploy-heketi\",\"ports\":[{\"containerPort\":8080}],\"readinessProbe\":{\"exec\":{\"command\":[\"heketi-cli\",\"topology\",\"load\",\"--json=/etc/heketi/heketi-topology.json\"]},\"initialDelaySeconds\":30,\"periodSeconds\":30},\"volumeMounts\":[{\"mountPath\":\"/var/lib/heketi\",\"name\":\"db\"},{\"mountPath\":\"/etc/heketi\",\"name\":\"config\"}]}],\"serviceAccountName\":\"heketi-service-account\",\"volumes\":[{\"hostPath\":{\"path\":\"/alauda/src/heketi\"},\"name\":\"db\"},{\"name\":\"config\",\"secret\":{\"secretName\":\"heketi-config-secret\"}}]}}}}\n"
      }
    },
    "fb6b4f6b-7de2-11e8-93ad-5254004d4fc3": {
      "kind": "ServiceAccount",
      "apiVersion": "v1",
      "name": "heketi-service-account",
      "namespace": "default",
      "selfLink": "/api/v1/namespaces/default/serviceaccounts/heketi-service-account",
      "uid": "fb6b4f6b-7de2-11e8-93ad-5254004d4fc3",
      "resourceVersion": "422",
      "creationTimestamp": "2018-07-02T10:30:46Z",
      "annotations": {
        "kubectl.kubernetes.io/last-applied-configuration": "{\"apiVersion\":\"v1\",\"kind\":\"ServiceAccount\",\"metadata\":{\"annotations\":{},\"name\":\"heketi-service-account\",\"namespace\":\"default\"}}\n"
      }
    },
    "fb6f546a-7de2-11e8-93ad-5254004d4fc3": {
      "kind": "Secret",
      "apiVersion": "v1",
      "name": "heketi-service-account-token-2l22g",
      "namespace": "default",
      "selfLink": "/api/v1/namespaces/default/secrets/heketi-service-account-token-2l22g",
      "uid": "fb6f546a-7de2-11e8-93ad-5254004d4fc3",
      "resourceVersion": "421",
      "creationTimestamp": "2018-07-02T10:30:46Z",
      "annotations": {
        "kubernetes.io/service-account.name": "heketi-service-account",
        "kubernetes.io/service-account.uid": "fb6b4f6b-7de2-11e8-93ad-5254004d4fc3"
      }
    }
  },
  "edges": [
    {
      "type": "Reference",
      "from": "fb69fa0a-7de2-11e8-93ad-5254004d4fc3",
      "to": "fb354131-7de2-11e8-93ad-5254004d4fc3"
    },
    {
      "type": "Reference",
      "from": "fb69fa0a-7de2-11e8-93ad-5254004d4fc3",
      "to": "fb6b4f6b-7de2-11e8-93ad-5254004d4fc3"
    },
    {
      "type": "Selector",
      "from": "fb675e40-7de2-11e8-93ad-5254004d4fc3",
      "to": "fb69fa0a-7de2-11e8-93ad-5254004d4fc3"
    }
  ]
}